{
    "name": "Everyday I'm Schedulin'",
    "intro": {
        "template": "intro/index.html",
        "js": "intro/index.js"
    },
    "main": "main.js",
    "resources": [
        "solutions/snail.js",
        "guide.html"
    ],
    "dependencies": [ "ladybugs" ],
    "schedulers": ["roundrobin", "random", "lockstep"],
    "guide": "guide.html"
}