{
    "name": "Hello, World!",
    "intro": {
        "template": "intro/index.html",
        "js": "intro/index.js"
    },
    "main": "main.js",
    "resources": [
        "solutions/worker.js",
        "view.html",
        "worker.html",
        "guide.html"
    ],
    "dependencies": ["console", "math", "utils"],
    "guide": "guide.html"
}