[
    {
        "name": "Introduction",
        "icon": "bolt",
        "tutorials": [
            "HelloWorld",
            "HelloParallelWorld",
            "EveryDayImSchedulin",
            "EnterTheForrest"
        ]
    },
    {
        "name": "Tutorials",
        "icon": "graduation-cap",
        "tutorials": [
                "Counting",
                "SynchronizedSnailRace",
                "LockstepColoring",
                "MasterWorker",
                "MushroomHunting"
        ]
    },
    {
        "name": "Experiments",
        "icon": "flask",
        "tutorials": [
                "TestButterfly",
                "TestForrest",
                "TestLadybugs"
        ]
    }
]